% $ biblatex auxiliary file $
% $ biblatex bbl format version 2.8 $
% Do not modify the above lines!
%
% This is an auxiliary file used by the 'biblatex' package.
% This file may safely be deleted. It will be recreated by
% biber as required.
%
\begingroup
\makeatletter
\@ifundefined{ver@biblatex.sty}
  {\@latex@error
     {Missing 'biblatex' package}
     {The bibliography requires the 'biblatex' package.}
      \aftergroup\endinput}
  {}
\endgroup


\refsection{0}
  \sortlist[entry]{anyt/global/}
    \entry{albach_elektrotechnik_2014}{book}{}
      \name{author}{1}{}{%
        {{hash=8ee2a1b3244a7a0a03cbfac917e1f813}{%
           family={Albach},
           familyi={A\bibinitperiod},
           given={Manfred},
           giveni={M\bibinitperiod}}}%
      }
      \list{location}{1}{%
        {München}%
      }
      \list{publisher}{1}{%
        {Pearson}%
      }
      \strng{namehash}{8ee2a1b3244a7a0a03cbfac917e1f813}
      \strng{fullhash}{8ee2a1b3244a7a0a03cbfac917e1f813}
      \strng{authornamehash}{8ee2a1b3244a7a0a03cbfac917e1f813}
      \strng{authorfullhash}{8ee2a1b3244a7a0a03cbfac917e1f813}
      \field{labelalpha}{Alb14}
      \field{sortinit}{A}
      \field{sortinithash}{3248043b5fe8d0a34dab5ab6b8d4309b}
      \field{labelnamesource}{author}
      \field{labeltitlesource}{title}
      \field{edition}{Nachdr.}
      \field{isbn}{978-3-86894-081-7}
      \field{note}{{OCLC}: 951441831}
      \field{pagetotal}{631}
      \field{series}{Always learning}
      \field{title}{Elektrotechnik}
      \field{year}{2014}
      \field{dateera}{ce}
    \endentry
    \entry{bohmer_elemente_2010}{book}{}
      \name{author}{3}{}{%
        {{hash=bf08f7096cf5ea0312503a243c5653a1}{%
           family={Böhmer},
           familyi={B\bibinitperiod},
           given={Erwin},
           giveni={E\bibinitperiod}}}%
        {{hash=edf7e2f3522f1d9f82598db2a012eba5}{%
           family={Ehrhardt},
           familyi={E\bibinitperiod},
           given={Dietmar},
           giveni={D\bibinitperiod}}}%
        {{hash=c019d837a874bd28a3f4c867cae8c1fe}{%
           family={Oberschelp},
           familyi={O\bibinitperiod},
           given={Wolfgang},
           giveni={W\bibinitperiod}}}%
      }
      \list{location}{1}{%
        {Wiesbaden}%
      }
      \list{publisher}{1}{%
        {Vieweg + Teubner}%
      }
      \strng{namehash}{e893db38abb99688a206bc443075518a}
      \strng{fullhash}{e893db38abb99688a206bc443075518a}
      \strng{authornamehash}{e893db38abb99688a206bc443075518a}
      \strng{authorfullhash}{e893db38abb99688a206bc443075518a}
      \field{labelalpha}{BEO10}
      \field{sortinit}{B}
      \field{sortinithash}{5f6fa000f686ee5b41be67ba6ff7962d}
      \field{labelnamesource}{author}
      \field{labeltitlesource}{shorttitle}
      \field{edition}{16., aktualisierte Aufl}
      \field{isbn}{978-3-8348-0543-0}
      \field{langid}{german}
      \field{note}{{OCLC}: 551839415}
      \field{pagetotal}{506}
      \field{series}{Studium}
      \field{shorttitle}{Elemente der angewandten Elektronik}
      \field{title}{Elemente der angewandten Elektronik: Kompendium für Ausbildung und Beruf ; mit einem umfangreichen Bauteilekatalog}
      \field{year}{2010}
      \field{dateera}{ce}
      \verb{file}
      \verb Böhmer et al. - 2010 - Elemente der angewandten Elektronik Kompendium fü.pdf:/home/franzi/Zotero/storage/PIS4PIT9/Böhmer et al. - 2010 - Elemente der angewandten Elektronik Kompendium fü.pdf:application/pdf
      \endverb
    \endentry
    \entry{bronstejn_taschenbuch_1999}{collection}{}
      \name{editor}{1}{}{%
        {{hash=4080a9bd9c047fa243b85c5aa3553582}{%
           family={Bronštejn},
           familyi={B\bibinitperiod},
           given={Ilʹja\bibnamedelima N.},
           giveni={I\bibinitperiod\bibinitdelim N\bibinitperiod}}}%
      }
      \list{location}{1}{%
        {Frankfurt am Main}%
      }
      \list{publisher}{1}{%
        {Deutsch}%
      }
      \strng{namehash}{4080a9bd9c047fa243b85c5aa3553582}
      \strng{fullhash}{4080a9bd9c047fa243b85c5aa3553582}
      \strng{editornamehash}{4080a9bd9c047fa243b85c5aa3553582}
      \strng{editorfullhash}{4080a9bd9c047fa243b85c5aa3553582}
      \field{labelalpha}{Bro99}
      \field{sortinit}{B}
      \field{sortinithash}{5f6fa000f686ee5b41be67ba6ff7962d}
      \field{labelnamesource}{editor}
      \field{labeltitlesource}{title}
      \field{edition}{4., überarb. und erw. Aufl. der Neubearb}
      \field{isbn}{978-3-8171-2014-7}
      \field{note}{{OCLC}: 845118366}
      \field{pagetotal}{1151}
      \field{title}{Taschenbuch der Mathematik}
      \field{year}{1999}
      \field{dateera}{ce}
      \verb{file}
      \verb Table of Contents PDF:/home/franzi/Zotero/storage/NYC5ZR98/Bronštejn - 1999 - Taschenbuch der Mathematik.pdf:application/pdf
      \endverb
    \endentry
    \entry{bumiller_fachkunde_2018}{book}{}
      \name{author}{11}{}{%
        {{hash=7e72584090608419b1657adaa6e29171}{%
           family={Bumiller},
           familyi={B\bibinitperiod},
           given={Horst},
           giveni={H\bibinitperiod}}}%
        {{hash=815d5914446b4fb34822f0628fb903bb}{%
           family={Burgmaier},
           familyi={B\bibinitperiod},
           given={Monika},
           giveni={M\bibinitperiod}}}%
        {{hash=3980b5c918c20a9841f5ba101c1e0066}{%
           family={Eichler},
           familyi={E\bibinitperiod},
           given={Walter},
           giveni={W\bibinitperiod}}}%
        {{hash=bb3c37a4f085c8c3bc99add3e185d32c}{%
           family={Feustel},
           familyi={F\bibinitperiod},
           given={Bernd},
           giveni={B\bibinitperiod}}}%
        {{hash=403cc23145673be9677e3f64592dac74}{%
           family={Käppel},
           familyi={K\bibinitperiod},
           given={Thomas},
           giveni={T\bibinitperiod}}}%
        {{hash=618353871fc0a519dc59fdc30dff0908}{%
           family={Klee},
           familyi={K\bibinitperiod},
           given={Werner},
           giveni={W\bibinitperiod}}}%
        {{hash=537e419af34355617e8f127e679104df}{%
           family={Manderla},
           familyi={M\bibinitperiod},
           given={Jürgen},
           giveni={J\bibinitperiod}}}%
        {{hash=16d3251df22e87bba32657e7db88446e}{%
           family={Reichmann},
           familyi={R\bibinitperiod},
           given={Olaf},
           giveni={O\bibinitperiod}}}%
        {{hash=7508513950d361ab18cebd04ec59fa17}{%
           family={Schwarz},
           familyi={S\bibinitperiod},
           given={Jürgen},
           giveni={J\bibinitperiod}}}%
        {{hash=513c116402ff983c4924901a4a62b61c}{%
           family={Tkotz},
           familyi={T\bibinitperiod},
           given={Klaus},
           giveni={K\bibinitperiod}}}%
        {{hash=091e664e98b321c061c2d68c44213fd2}{%
           family={Winter},
           familyi={W\bibinitperiod},
           given={Ulrich},
           giveni={U\bibinitperiod}}}%
      }
      \list{location}{1}{%
        {Haan-Gruiten}%
      }
      \list{publisher}{1}{%
        {Verlag Europa-Lehrmittel, Nourney, Vollmer {GmbH} \& Co. {KG}}%
      }
      \strng{namehash}{3a9fcbf72898ac92ea08248ca5943e80}
      \strng{fullhash}{947f59c6e9777e928f80624ddebbb84f}
      \strng{authornamehash}{3a9fcbf72898ac92ea08248ca5943e80}
      \strng{authorfullhash}{947f59c6e9777e928f80624ddebbb84f}
      \field{labelalpha}{Bum+18}
      \field{sortinit}{B}
      \field{sortinithash}{5f6fa000f686ee5b41be67ba6ff7962d}
      \field{labelnamesource}{author}
      \field{labeltitlesource}{title}
      \field{edition}{31. überarbeitete und erweiterte Auflage}
      \field{isbn}{978-3-8085-3479-3}
      \field{note}{{OCLC}: 1024134880}
      \field{pagetotal}{688}
      \field{series}{Europa Fachbuchreihe für elektronische Berufe}
      \field{title}{Fachkunde Elektrotechnik}
      \field{year}{2018}
      \field{dateera}{ce}
    \endentry
    \entry{co_ntc/ptc_2018}{article}{}
      \name{author}{1}{}{%
        {{hash=d4cc3ad3da27c06b52b17386ed2f70bf}{%
           family={Co},
           familyi={C\bibinitperiod},
           given={Murata\bibnamedelima Manufacturing},
           giveni={M\bibinitperiod\bibinitdelim M\bibinitperiod}}}%
      }
      \strng{namehash}{d4cc3ad3da27c06b52b17386ed2f70bf}
      \strng{fullhash}{d4cc3ad3da27c06b52b17386ed2f70bf}
      \strng{authornamehash}{d4cc3ad3da27c06b52b17386ed2f70bf}
      \strng{authorfullhash}{d4cc3ad3da27c06b52b17386ed2f70bf}
      \field{labelalpha}{Co18}
      \field{sortinit}{C}
      \field{sortinithash}{095692fd22cc3c74d7fe223d02314dbd}
      \field{labelnamesource}{author}
      \field{labeltitlesource}{title}
      \field{langid}{english}
      \field{title}{{NTC}/{PTC} Thermistors for Automotive}
      \field{year}{2018}
      \field{dateera}{ce}
      \field{pages}{86}
      \range{pages}{1}
      \verb{file}
      \verb Co - 2018 - NTCPTC Thermistors for Automotive.pdf:/home/franzi/Zotero/storage/MG32J6DG/Co - 2018 - NTCPTC Thermistors for Automotive.pdf:application/pdf
      \endverb
    \endentry
    \entry{din_deutsches_institut_fur_normung_e._v._din_german_institute_for_standardization_din_2009}{legislation}{}
      \name{author}{1}{}{%
        {{hash=29830eedc60fb298fafb28c62ac121fb}{%
           family={{DIN}\bibnamedelimb Deutsches\bibnamedelimb Institut\bibnamedelimb für\bibnamedelimb Normung\bibnamedelimb e.\bibnamedelimi V.},
           familyi={D\bibinitperiod\bibinitdelim D\bibinitperiod\bibinitdelim I\bibinitperiod\bibinitdelim f\bibinitperiod\bibinitdelim N\bibinitperiod\bibinitdelim e\bibinitperiod\bibinitdelim V\bibinitperiod},
           given={{DIN}\bibnamedelimb German\bibnamedelimb Institute\bibnamedelimb for\bibnamedelima Standardization},
           giveni={D\bibinitperiod\bibinitdelim G\bibinitperiod\bibinitdelim I\bibinitperiod\bibinitdelim f\bibinitperiod\bibinitdelim S\bibinitperiod}}}%
      }
      \strng{namehash}{29830eedc60fb298fafb28c62ac121fb}
      \strng{fullhash}{29830eedc60fb298fafb28c62ac121fb}
      \strng{authornamehash}{29830eedc60fb298fafb28c62ac121fb}
      \strng{authorfullhash}{29830eedc60fb298fafb28c62ac121fb}
      \field{labelalpha}{DIN09}
      \field{sortinit}{D}
      \field{sortinithash}{d10b5413de1f3d197b20897dd0d565bb}
      \field{labelnamesource}{author}
      \field{labeltitlesource}{title}
      \field{day}{1}
      \field{month}{4}
      \field{title}{{DIN} {EN} 61051-1 Varistoren zur Verwendung in Geräten der Elektronik - Teil 1: Fachgrundspezifikation}
      \field{year}{2009}
      \field{dateera}{ce}
      \verb{file}
      \verb 1510632.pdf:/home/franzi/Zotero/storage/PUGC7474/1510632.pdf:application/pdf
      \endverb
    \endentry
    \entry{etem_sicherheit_2015}{article}{}
      \name{author}{1}{}{%
        {{hash=06e25f8cfe77feb258e0a24ba3dce80b}{%
           family={Etem},
           familyi={E\bibinitperiod},
           given={Bg},
           giveni={B\bibinitperiod}}}%
      }
      \strng{namehash}{06e25f8cfe77feb258e0a24ba3dce80b}
      \strng{fullhash}{06e25f8cfe77feb258e0a24ba3dce80b}
      \strng{authornamehash}{06e25f8cfe77feb258e0a24ba3dce80b}
      \strng{authorfullhash}{06e25f8cfe77feb258e0a24ba3dce80b}
      \field{labelalpha}{Ete15}
      \field{sortinit}{E}
      \field{sortinithash}{07bbd5a529b5beaa311df5be05b874bc}
      \field{labelnamesource}{author}
      \field{labeltitlesource}{title}
      \field{langid}{german}
      \field{month}{10}
      \field{title}{Sicherheit bei Arbeiten an elektrischen Anlagen}
      \field{urlday}{1}
      \field{urlmonth}{3}
      \field{urlyear}{2019}
      \field{year}{2015}
      \field{dateera}{ce}
      \field{urldateera}{ce}
      \field{pages}{76}
      \range{pages}{1}
      \verb{file}
      \verb Etem - Sicherheit bei Arbeiten an elektrischen Anlagen.pdf:/home/franzi/Zotero/storage/L4E3WCSZ/Etem - Sicherheit bei Arbeiten an elektrischen Anlagen.pdf:application/pdf
      \endverb
    \endentry
    \entry{fischer_elektrotechnik_2012}{book}{}
      \name{author}{2}{}{%
        {{hash=f2602e9eaec519b16da9b08ddf54c662}{%
           family={Fischer},
           familyi={F\bibinitperiod},
           given={Rolf},
           giveni={R\bibinitperiod}}}%
        {{hash=32465a636a202d450b28d7df99b3eb3a}{%
           family={Linse},
           familyi={L\bibinitperiod},
           given={Hermann},
           giveni={H\bibinitperiod}}}%
      }
      \list{location}{1}{%
        {Wiesbaden}%
      }
      \list{publisher}{1}{%
        {Springer Vieweg}%
      }
      \strng{namehash}{f09f62e26ed923d6e7ce4771dc3ef6fa}
      \strng{fullhash}{f09f62e26ed923d6e7ce4771dc3ef6fa}
      \strng{authornamehash}{f09f62e26ed923d6e7ce4771dc3ef6fa}
      \strng{authorfullhash}{f09f62e26ed923d6e7ce4771dc3ef6fa}
      \field{labelalpha}{FL12}
      \field{sortinit}{F}
      \field{sortinithash}{276475738cc058478c1677046f857703}
      \field{labelnamesource}{author}
      \field{labeltitlesource}{shorttitle}
      \field{edition}{14., überarb. und aktualisierte Aufl}
      \field{isbn}{978-3-8348-1374-9 978-3-8348-8304-9}
      \field{langid}{german}
      \field{note}{{OCLC}: 802761669}
      \field{pagetotal}{477}
      \field{series}{Lehrbuch}
      \field{shorttitle}{Elektrotechnik für Maschinenbauer}
      \field{title}{Elektrotechnik für Maschinenbauer: mit Elektronik, elektrischer Messtechnik, elektrischen Antrieben und Steuerungstechnik ; mit Tabellen, 113 Beispielen und 68 Aufgaben mit Lösungen}
      \field{year}{2012}
      \field{dateera}{ce}
      \verb{file}
      \verb Fischer und Linse - 2012 - Elektrotechnik für Maschinenbauer mit Elektronik,.pdf:/home/franzi/Zotero/storage/QMN3GFRF/Fischer und Linse - 2012 - Elektrotechnik für Maschinenbauer mit Elektronik,.pdf:application/pdf
      \endverb
    \endentry
    \entry{world_bank_group_access_2019}{online}{}
      \name{author}{1}{}{%
        {{hash=90d7a1a3ed0b6dae5d346da704eef50c}{%
           family={Group},
           familyi={G\bibinitperiod},
           given={World\bibnamedelima Bank},
           giveni={W\bibinitperiod\bibinitdelim B\bibinitperiod}}}%
      }
      \strng{namehash}{90d7a1a3ed0b6dae5d346da704eef50c}
      \strng{fullhash}{90d7a1a3ed0b6dae5d346da704eef50c}
      \strng{authornamehash}{90d7a1a3ed0b6dae5d346da704eef50c}
      \strng{authorfullhash}{90d7a1a3ed0b6dae5d346da704eef50c}
      \field{labelalpha}{Gro19}
      \field{sortinit}{G}
      \field{sortinithash}{618d986594b7198ba52cf8b00d348f3f}
      \field{labelnamesource}{author}
      \field{labeltitlesource}{title}
      \field{day}{29}
      \field{month}{1}
      \field{title}{Access to electricity (\% of population) {|} Data}
      \field{urlday}{1}
      \field{urlmonth}{2}
      \field{urlyear}{2019}
      \field{year}{2019}
      \field{dateera}{ce}
      \field{urldateera}{ce}
      \verb{file}
      \verb Access to electricity (% of population) | Data:/home/franzi/Zotero/storage/P3HKFLDJ/EG.ELC.ACCS.html:text/html
      \endverb
      \verb{url}
      \verb https://data.worldbank.org/indicator/EG.ELC.ACCS.ZS
      \endverb
    \endentry
    \entry{haberle_tabellenbuch_2018}{book}{}
      \name{author}{9}{}{%
        {{hash=33b0f1e10130c5e2561a77451b9e90bb}{%
           family={Häberle},
           familyi={H\bibinitperiod},
           given={Gregor\bibnamedelima D.},
           giveni={G\bibinitperiod\bibinitdelim D\bibinitperiod}}}%
        {{hash=1c28cddaba362966985332e41d6a32c4}{%
           family={Häberle},
           familyi={H\bibinitperiod},
           given={Heinz\bibnamedelima O.},
           giveni={H\bibinitperiod\bibinitdelim O\bibinitperiod}}}%
        {{hash=cd3f35d95aa17729d0860ce063f9187d}{%
           family={Isele},
           familyi={I\bibinitperiod},
           given={Dieter},
           giveni={D\bibinitperiod}}}%
        {{hash=57db6d3d2753e4d6cf2df7083fdad0bb}{%
           family={Jöckel},
           familyi={J\bibinitperiod},
           given={Hans-Walter},
           giveni={H\bibinithyphendelim W\bibinitperiod}}}%
        {{hash=5c69a124612269e3e686f7e745bd1da0}{%
           family={Krall},
           familyi={K\bibinitperiod},
           given={Rudolf},
           giveni={R\bibinitperiod}}}%
        {{hash=f5fa4b779dd636819608edfe454617e1}{%
           family={Schiemann},
           familyi={S\bibinitperiod},
           given={Bernd},
           giveni={B\bibinitperiod}}}%
        {{hash=bd65cf27ee5ee8a94355c1c55b2d190a}{%
           family={Schmid},
           familyi={S\bibinitperiod},
           given={Dietmar},
           giveni={D\bibinitperiod}}}%
        {{hash=9dcfda84e6bc641a5fa2983e77f8ea72}{%
           family={Schmitt},
           familyi={S\bibinitperiod},
           given={Siegfried},
           giveni={S\bibinitperiod}}}%
        {{hash=513c116402ff983c4924901a4a62b61c}{%
           family={Tkotz},
           familyi={T\bibinitperiod},
           given={Klaus},
           giveni={K\bibinitperiod}}}%
      }
      \list{location}{1}{%
        {Haan-Gruiten}%
      }
      \list{publisher}{1}{%
        {Verlag Europa-Lehrmittel, Nourney, Vollmer {GmbH} \& Co. {KG}}%
      }
      \strng{namehash}{f880535f719b6847b6cde6b964e50002}
      \strng{fullhash}{54bcd1d6f763badedd6c26e05be616bb}
      \strng{authornamehash}{f880535f719b6847b6cde6b964e50002}
      \strng{authorfullhash}{54bcd1d6f763badedd6c26e05be616bb}
      \field{labelalpha}{Häb+18}
      \field{sortinit}{H}
      \field{sortinithash}{2f664b453ec75da1fe3804ca92633405}
      \field{labelnamesource}{author}
      \field{labeltitlesource}{shorttitle}
      \field{edition}{28., neu bearbeitete und erweiterte Auflage}
      \field{isbn}{978-3-8085-3490-8 978-3-8085-3509-7}
      \field{note}{{OCLC}: 1040695867}
      \field{pagetotal}{576}
      \field{series}{Europa-Fachbuchreihe für elektrotechnische, elektronische, mechatronische und informationstechnische Berufe}
      \field{shorttitle}{Tabellenbuch Elektrotechnik}
      \field{title}{Tabellenbuch Elektrotechnik: Tabellen, Formeln, Normenanwendungen}
      \field{year}{2018}
      \field{dateera}{ce}
    \endentry
    \entry{hagmann_aufgabensammlung_2013}{book}{}
      \name{author}{1}{}{%
        {{hash=33a7d9a9998e42a7fcbf533ad49040ab}{%
           family={Hagmann},
           familyi={H\bibinitperiod},
           given={Gert},
           giveni={G\bibinitperiod}}}%
      }
      \list{location}{1}{%
        {Wiebelsheim}%
      }
      \list{publisher}{1}{%
        {{AULA}-Verl}%
      }
      \strng{namehash}{33a7d9a9998e42a7fcbf533ad49040ab}
      \strng{fullhash}{33a7d9a9998e42a7fcbf533ad49040ab}
      \strng{authornamehash}{33a7d9a9998e42a7fcbf533ad49040ab}
      \strng{authorfullhash}{33a7d9a9998e42a7fcbf533ad49040ab}
      \field{labelalpha}{Hag13}
      \field{sortinit}{H}
      \field{sortinithash}{2f664b453ec75da1fe3804ca92633405}
      \field{labelnamesource}{author}
      \field{labeltitlesource}{shorttitle}
      \field{edition}{16., durchges. und korrigierte Aufl}
      \field{isbn}{978-3-89104-771-2}
      \field{note}{{OCLC}: 828196709}
      \field{pagetotal}{394}
      \field{shorttitle}{Aufgabensammlung zu den Grundlagen der Elektrotechnik}
      \field{title}{Aufgabensammlung zu den Grundlagen der Elektrotechnik: mit Lösungen und ausführlichen Lösungswegen ; die bewährte Hilfe für Studierende der Elektrotechnik und anderer technischer Studiengänge ab dem 1. Semester}
      \field{year}{2013}
      \field{dateera}{ce}
      \verb{file}
      \verb Table of Contents PDF:/home/franzi/Zotero/storage/BCRFBUZH/Hagmann - 2013 - Aufgabensammlung zu den Grundlagen der Elektrotech.pdf:application/pdf
      \endverb
    \endentry
    \entry{hagmann_grundlagen_2017}{book}{}
      \name{author}{1}{}{%
        {{hash=33a7d9a9998e42a7fcbf533ad49040ab}{%
           family={Hagmann},
           familyi={H\bibinitperiod},
           given={Gert},
           giveni={G\bibinitperiod}}}%
      }
      \list{location}{1}{%
        {Wiebelsheim}%
      }
      \list{publisher}{1}{%
        {{AULA}-Verlag}%
      }
      \strng{namehash}{33a7d9a9998e42a7fcbf533ad49040ab}
      \strng{fullhash}{33a7d9a9998e42a7fcbf533ad49040ab}
      \strng{authornamehash}{33a7d9a9998e42a7fcbf533ad49040ab}
      \strng{authorfullhash}{33a7d9a9998e42a7fcbf533ad49040ab}
      \field{labelalpha}{Hag17}
      \field{sortinit}{H}
      \field{sortinithash}{2f664b453ec75da1fe3804ca92633405}
      \field{labelnamesource}{author}
      \field{labeltitlesource}{shorttitle}
      \field{edition}{17., durchgesehene und korrigierte Auflage}
      \field{isbn}{978-3-89104-804-7}
      \field{note}{{OCLC}: 982653245}
      \field{pagetotal}{398}
      \field{series}{Elektrotechnik}
      \field{shorttitle}{Grundlagen der Elektrotechnik}
      \field{title}{Grundlagen der Elektrotechnik: das bewährte Lehrbuch für Studierende der Elektrotechnik und anderer technischer Studiengänge ab 1. Semester: mit 225 Abbildungen, 4 Tabellen, Aufgaben und Lösungen}
      \field{year}{2017}
      \field{dateera}{ce}
      \verb{file}
      \verb Table of Contents PDF:/home/franzi/Zotero/storage/UJHM5WD4/Hagmann - 2017 - Grundlagen der Elektrotechnik das bewährte Lehrbu.pdf:application/pdf
      \endverb
    \endentry
    \entry{hering_elektrotechnik_2018}{book}{}
      \name{editor}{4}{}{%
        {{hash=29be8b370d75b426ff18a2557da6b5da}{%
           family={Hering},
           familyi={H\bibinitperiod},
           given={Ekbert},
           giveni={E\bibinitperiod}}}%
        {{hash=24dac3d99d573948e9497fd2125dce8d}{%
           family={Martin},
           familyi={M\bibinitperiod},
           given={Rolf},
           giveni={R\bibinitperiod}}}%
        {{hash=b8a81205b146a83a7f826d531aa81a9e}{%
           family={Gutekunst},
           familyi={G\bibinitperiod},
           given={Jürgen},
           giveni={J\bibinitperiod}}}%
        {{hash=e4815c74b8aa97745d52a17c9b013ebc}{%
           family={Kempkes},
           familyi={K\bibinitperiod},
           given={Joachim},
           giveni={J\bibinitperiod}}}%
      }
      \list{language}{1}{%
        {de}%
      }
      \list{location}{1}{%
        {Berlin, Heidelberg}%
      }
      \list{publisher}{1}{%
        {Springer Berlin Heidelberg}%
      }
      \strng{namehash}{e4dc30aba52a3ddce25db45ec733b5b0}
      \strng{fullhash}{2bcda47de57bb811497090b477c0cffa}
      \strng{editornamehash}{e4dc30aba52a3ddce25db45ec733b5b0}
      \strng{editorfullhash}{2bcda47de57bb811497090b477c0cffa}
      \field{labelalpha}{Her+18}
      \field{sortinit}{H}
      \field{sortinithash}{2f664b453ec75da1fe3804ca92633405}
      \field{labelnamesource}{editor}
      \field{labeltitlesource}{title}
      \field{isbn}{978-3-662-54295-8 978-3-662-54296-5}
      \field{title}{Elektrotechnik und {Elektronik} für {Maschinenbauer}}
      \field{urlday}{19}
      \field{urlmonth}{9}
      \field{urlyear}{2018}
      \field{year}{2018}
      \field{urldateera}{ce}
      \verb{doi}
      \verb 10.1007/978-3-662-54296-5
      \endverb
      \verb{url}
      \verb http://link.springer.com/10.1007/978-3-662-54296-5
      \endverb
    \endentry
    \entry{halliday_halliday_2017}{book}{}
      \name{author}{3}{}{%
        {{hash=9d9a6552821ea504ab1a5c767dddff92}{%
           family={Halliday},
           familyi={H\bibinitperiod},
           given={David},
           giveni={D\bibinitperiod}}}%
        {{hash=8967f5a0664f741b0ef2530a47e698fa}{%
           family={Resnick},
           familyi={R\bibinitperiod},
           given={Robert},
           giveni={R\bibinitperiod}}}%
        {{hash=aa8304879d8f7d99c7c4570759b948e2}{%
           family={Walker},
           familyi={W\bibinitperiod},
           given={Jearl},
           giveni={J\bibinitperiod}}}%
      }
      \name{editor}{1}{}{%
        {{hash=8f1224befcc35774571ae7129b98cae2}{%
           family={Koch},
           familyi={K\bibinitperiod},
           given={Stephan\bibnamedelima W.},
           giveni={S\bibinitperiod\bibinitdelim W\bibinitperiod}}}%
      }
      \name{translator}{2}{}{%
        {{hash=92d289809be3b58e3f0de2e585006c7f}{%
           family={Bär},
           familyi={B\bibinitperiod},
           given={Michael},
           giveni={M\bibinitperiod}}}%
        {{hash=66019a734d8a14422f26fcac6b389a4f}{%
           family={Delbrück},
           familyi={D\bibinitperiod},
           given={Matthias},
           giveni={M\bibinitperiod}}}%
      }
      \list{location}{1}{%
        {Weinheim}%
      }
      \list{publisher}{1}{%
        {Wiley-{VCH} Verlag {GmbH} \& Co. {KGaA}}%
      }
      \strng{namehash}{3978689396696961b0bd612b55ccf075}
      \strng{fullhash}{3978689396696961b0bd612b55ccf075}
      \strng{authornamehash}{3978689396696961b0bd612b55ccf075}
      \strng{authorfullhash}{3978689396696961b0bd612b55ccf075}
      \strng{editornamehash}{8f1224befcc35774571ae7129b98cae2}
      \strng{editorfullhash}{8f1224befcc35774571ae7129b98cae2}
      \strng{translatornamehash}{7788db51ed4ce4503281325384298fb2}
      \strng{translatorfullhash}{7788db51ed4ce4503281325384298fb2}
      \field{labelalpha}{HRW17}
      \field{sortinit}{H}
      \field{sortinithash}{2f664b453ec75da1fe3804ca92633405}
      \field{labelnamesource}{author}
      \field{labeltitlesource}{title}
      \field{edition}{Dritte, vollständig überarbeitete und erweiterte Auflage}
      \field{isbn}{978-3-527-41358-4 978-3-527-41356-0 978-3-527-81259-2 978-3-527-81260-8 978-3-527-81258-5 978-3-527-80576-1}
      \field{note}{{OCLC}: 986992848}
      \field{pagetotal}{1623}
      \field{title}{Halliday Physik}
      \field{year}{2017}
      \field{dateera}{ce}
    \endentry
    \entry{ivers-tiffee_werkstoffe_2007}{book}{}
      \name{author}{2}{}{%
        {{hash=f5d1d107c26ea82e6878f862d63dc83f}{%
           family={Ivers-Tiffée},
           familyi={I\bibinithyphendelim T\bibinitperiod},
           given={Ellen},
           giveni={E\bibinitperiod}}}%
        {{hash=6d846599402e9abdbfe55159252282cb}{%
           family={Münch},
           familyi={M\bibinitperiod},
           given={Waldemar\bibnamedelima von},
           giveni={W\bibinitperiod\bibinitdelim v\bibinitperiod}}}%
      }
      \list{location}{1}{%
        {Wiesbaden}%
      }
      \list{publisher}{1}{%
        {Teubner}%
      }
      \strng{namehash}{dd4b4449817fdec8b7f36d47cc044ec8}
      \strng{fullhash}{dd4b4449817fdec8b7f36d47cc044ec8}
      \strng{authornamehash}{dd4b4449817fdec8b7f36d47cc044ec8}
      \strng{authorfullhash}{dd4b4449817fdec8b7f36d47cc044ec8}
      \field{labelalpha}{IM07}
      \field{sortinit}{I}
      \field{sortinithash}{a3dcedd53b04d1adfd5ac303ecd5e6fa}
      \field{labelnamesource}{author}
      \field{labeltitlesource}{shorttitle}
      \field{edition}{10., überarb. und erw. Aufl}
      \field{isbn}{978-3-8351-0052-7}
      \field{langid}{german}
      \field{note}{{OCLC}: 180067532}
      \field{pagetotal}{266}
      \field{series}{Lehrbuch Elektrotechnik}
      \field{shorttitle}{Werkstoffe der Elektrotechnik}
      \field{title}{Werkstoffe der Elektrotechnik: mit 40 Tabellen}
      \field{year}{2007}
      \field{dateera}{ce}
      \verb{file}
      \verb Ivers-Tiffée und Münch - 2007 - Werkstoffe der Elektrotechnik mit 40 Tabellen.pdf:/home/franzi/Zotero/storage/4QRRN6HH/Ivers-Tiffée und Münch - 2007 - Werkstoffe der Elektrotechnik mit 40 Tabellen.pdf:application/pdf
      \endverb
    \endentry
    \entry{kanthalcom_resistance_2021}{misc}{}
      \name{author}{1}{}{%
        {{hash=41bbb5908bdb20040b7c903af291e2e1}{%
           family={{Kanthal.com}},
           familyi={K\bibinitperiod}}}%
      }
      \list{language}{1}{%
        {en}%
      }
      \strng{namehash}{41bbb5908bdb20040b7c903af291e2e1}
      \strng{fullhash}{41bbb5908bdb20040b7c903af291e2e1}
      \strng{authornamehash}{41bbb5908bdb20040b7c903af291e2e1}
      \strng{authorfullhash}{41bbb5908bdb20040b7c903af291e2e1}
      \field{labelalpha}{Kan21}
      \field{sortinit}{K}
      \field{sortinithash}{4c244ceae61406cdc0cc2ce1cb1ff703}
      \field{labelnamesource}{author}
      \field{labeltitlesource}{title}
      \field{title}{{RESISTANCE} {HEATING} {WIRE} {AND} {RESISTANCE} {WIRE}}
      \field{year}{2021}
      \verb{url}
      \verb https://www.kanthal.de/contentassets/d1a6d25110804b559e59df104795e231/100-nickel-en-v2021-02-04-1332-version-1.pdf/download
      \endverb
    \endentry
    \entry{may_konzeption_2010}{thesis}{}
      \name{author}{1}{}{%
        {{hash=7b588f02d7701e8bd5f47bb36ecdf39d}{%
           family={May},
           familyi={M\bibinitperiod},
           given={Johanna\bibnamedelima Friederike},
           giveni={J\bibinitperiod\bibinitdelim F\bibinitperiod}}}%
      }
      \list{institution}{1}{%
        {Albert-Ludwigs-Universität Freiburg}%
      }
      \list{location}{1}{%
        {Freiburg}%
      }
      \strng{namehash}{7b588f02d7701e8bd5f47bb36ecdf39d}
      \strng{fullhash}{7b588f02d7701e8bd5f47bb36ecdf39d}
      \strng{authornamehash}{7b588f02d7701e8bd5f47bb36ecdf39d}
      \strng{authorfullhash}{7b588f02d7701e8bd5f47bb36ecdf39d}
      \field{labelalpha}{May10}
      \field{sortinit}{M}
      \field{sortinithash}{c26a05ef03e4429073ed5c825140fac3}
      \field{labelnamesource}{author}
      \field{labeltitlesource}{title}
      \field{abstract}{Mikrofluidische Systeme handhaben und analysieren Fluide auf kleinem Raum. Besondere Herausforderungen entstehen, wenn Silizium-Mikrosysteme mit Polymerfluidik verbunden werden sollen: Fluidisch dichte und elektrisch durchgängige Verbindungen zwischen beiden Materialsystemen müssen thermischen Spannungen standhalten. Diese entstehen sowohl beim Verbinden der Materialsysteme als auch durch resistive Erwärmung von Leiterbahnen und Kontakten. Die vorgelegte Arbeit zeigt Technologien auf, die zur Integration von Silizium-{MEMS} in Polymer dienen können. Erstmals entwickelt wurde hierzu der {IHEC}-Prozess ("Inverted Hot Embossing of Conductors") sowie eine Methode zur simultanen fluidischen und elektrischen Ankontaktierung von Si-Bauteilen an Polymer. Die Evaluation von Leiterbahnen und Flipchip-Kontakten mit Breiten von 200 μm zeigt Grenzen der entwickelten Verfahren aufgrund von thermischen Spannungen auf. Eine Reihe von Prozessschritten von der Herstellung der Polymerfluidik über die Herstellung der Leiterbahnen, das Deckeln der fluidischen Kanäle und die Anbindung der Silizium- Bauelemente ist nötig, um als Demonstrator regelbare Mikropumpen herzustellen. Der so konzipierte Prozessfluss konnte prinzipiell nachgewiesen werden.}
      \field{day}{10}
      \field{month}{12}
      \field{title}{Konzeption, Realisierung und Bewertung eines Prozesses zur Integration von {MEMS} in Polymer}
      \field{type}{Dissertation}
      \field{year}{2010}
      \field{dateera}{ce}
    \endentry
    \entry{nerreter_grundlagen_2011}{book}{}
      \name{author}{1}{}{%
        {{hash=f371fddacf518e620b525397c05f8476}{%
           family={Nerreter},
           familyi={N\bibinitperiod},
           given={Wolfgang},
           giveni={W\bibinitperiod}}}%
      }
      \list{location}{1}{%
        {München}%
      }
      \list{publisher}{1}{%
        {Fachbuchverl. Leipzig im Carl-Hanser-Verl}%
      }
      \strng{namehash}{f371fddacf518e620b525397c05f8476}
      \strng{fullhash}{f371fddacf518e620b525397c05f8476}
      \strng{authornamehash}{f371fddacf518e620b525397c05f8476}
      \strng{authorfullhash}{f371fddacf518e620b525397c05f8476}
      \field{labelalpha}{Ner11}
      \field{sortinit}{N}
      \field{sortinithash}{1163c28585427c673ad5a010cbf82f52}
      \field{labelnamesource}{author}
      \field{labeltitlesource}{shorttitle}
      \field{edition}{2., aktualisierte Aufl}
      \field{isbn}{978-3-446-42385-5}
      \field{note}{{OCLC}: 846279145}
      \field{pagetotal}{383}
      \field{shorttitle}{Grundlagen der Elektrotechnik}
      \field{title}{Grundlagen der Elektrotechnik: mit 31 Tabellen, 138 Beispielen, sowie 100 Aufgaben mit Lösungen}
      \field{year}{2011}
      \field{dateera}{ce}
    \endentry
    \entry{stiny_aufgabensammlung_2017}{book}{}
      \name{author}{1}{}{%
        {{hash=0c6ddeb720141ec11bd2e02656060d57}{%
           family={Stiny},
           familyi={S\bibinitperiod},
           given={Leonhard},
           giveni={L\bibinitperiod}}}%
      }
      \list{language}{1}{%
        {de}%
      }
      \list{location}{1}{%
        {Wiesbaden}%
      }
      \list{publisher}{1}{%
        {Springer Fachmedien Wiesbaden}%
      }
      \strng{namehash}{0c6ddeb720141ec11bd2e02656060d57}
      \strng{fullhash}{0c6ddeb720141ec11bd2e02656060d57}
      \strng{authornamehash}{0c6ddeb720141ec11bd2e02656060d57}
      \strng{authorfullhash}{0c6ddeb720141ec11bd2e02656060d57}
      \field{labelalpha}{Sti17}
      \field{sortinit}{S}
      \field{sortinithash}{3c1547c63380458f8ca90e40ed14b83e}
      \field{labelnamesource}{author}
      \field{labeltitlesource}{title}
      \field{isbn}{978-3-658-14380-0 978-3-658-14381-7}
      \field{title}{Aufgabensammlung zur {Elektrotechnik} und {Elektronik}}
      \field{urlday}{3}
      \field{urlmonth}{10}
      \field{urlyear}{2018}
      \field{year}{2017}
      \field{urldateera}{ce}
      \verb{doi}
      \verb 10.1007/978-3-658-14381-7
      \endverb
      \verb{file}
      \verb Stiny - 2017 - Aufgabensammlung zur Elektrotechnik und Elektronik.pdf:/home/franzi/Dokumente/Literat/Stiny - 2017 - Aufgabensammlung zur Elektrotechnik und Elektronik.pdf:application/pdf
      \endverb
      \verb{url}
      \verb http://link.springer.com/10.1007/978-3-658-14381-7
      \endverb
    \endentry
    \entry{thomas_harriehausen_moeller_2020}{book}{}
      \name{author}{2}{}{%
        {{hash=43d6197d46c16a370de78bf79756f939}{%
           family={{Thomas Harriehausen}},
           familyi={T\bibinitperiod}}}%
        {{hash=477e444c117f3421cebe298ae05ae095}{%
           family={{Dieter Schwarzenau}},
           familyi={D\bibinitperiod}}}%
      }
      \list{publisher}{1}{%
        {Springer Vieweg}%
      }
      \strng{namehash}{142cd96380ebb72fb162a7deffa45c94}
      \strng{fullhash}{142cd96380ebb72fb162a7deffa45c94}
      \strng{authornamehash}{142cd96380ebb72fb162a7deffa45c94}
      \strng{authorfullhash}{142cd96380ebb72fb162a7deffa45c94}
      \field{labelalpha}{TD20}
      \field{sortinit}{T}
      \field{sortinithash}{2e5c2f51f7fa2d957f3206819bf86dc3}
      \field{labelnamesource}{author}
      \field{labeltitlesource}{title}
      \field{edition}{24., durchgesehene und korrigierte}
      \field{isbn}{978-3-658-27839-7}
      \field{langid}{german}
      \field{note}{{OCLC}: 1114754483}
      \field{title}{Moeller Grundlagen der Elektrotechnik}
      \field{year}{2020}
      \field{dateera}{ce}
      \verb{file}
      \verb HARRIEHAUSEN - 2020 - MOELLER GRUNDLAGEN DER ELEKTROTECHNIK..pdf:/home/franzi/Zotero/storage/5IVWXJ22/HARRIEHAUSEN - 2020 - MOELLER GRUNDLAGEN DER ELEKTROTECHNIK..pdf:application/pdf
      \endverb
    \endentry
    \entry{deutsche_gesetzliche_unfallversicherung_e._v._dguv_elektrische_2011}{misc}{}
      \name{editor}{1}{}{%
        {{hash=4bc1f51773b1d50c72302fdae127569a}{%
           family={V.\bibnamedelimi ({DGUV})},
           familyi={V\bibinitperiod\bibinitdelim (\bibinitperiod},
           given={Deutsche\bibnamedelimb Gesetzliche\bibnamedelima Unfallversicherung},
           giveni={D\bibinitperiod\bibinitdelim G\bibinitperiod\bibinitdelim U\bibinitperiod},
           prefix={e.},
           prefixi={e\bibinitperiod}}}%
      }
      \strng{namehash}{4bc1f51773b1d50c72302fdae127569a}
      \strng{fullhash}{4bc1f51773b1d50c72302fdae127569a}
      \strng{editornamehash}{4bc1f51773b1d50c72302fdae127569a}
      \strng{editorfullhash}{4bc1f51773b1d50c72302fdae127569a}
      \field{labelalpha}{V D11}
      \field{sortinit}{V}
      \field{sortinithash}{555737dafdcf1396ebfeae5822e5bde2}
      \field{labelnamesource}{editor}
      \field{labeltitlesource}{title}
      \field{langid}{german}
      \field{month}{7}
      \field{title}{Elektrische Gefahren an der Einsatzstelle Vortrag für Einsatzkräfte}
      \field{urlday}{15}
      \field{urlmonth}{3}
      \field{urlyear}{2019}
      \field{year}{2011}
      \field{dateera}{ce}
      \field{urldateera}{ce}
      \verb{file}
      \verb i-8677.pdf:/home/franzi/Zotero/storage/BQS8XUAZ/i-8677.pdf:application/pdf
      \endverb
      \verb{url}
      \verb https://publikationen.dguv.de/dguv/pdf/10002/i-8677.pdf
      \endverb
    \endentry
    \entry{vde_einstiegshilfe_2007}{legislation}{}
      \name{author}{1}{}{%
        {{hash=cbf5fbdc71e55e280d492d2284255b25}{%
           family={{VDE}},
           familyi={V\bibinitperiod},
           given={{DKE}},
           giveni={D\bibinitperiod}}}%
      }
      \strng{namehash}{cbf5fbdc71e55e280d492d2284255b25}
      \strng{fullhash}{cbf5fbdc71e55e280d492d2284255b25}
      \strng{authornamehash}{cbf5fbdc71e55e280d492d2284255b25}
      \strng{authorfullhash}{cbf5fbdc71e55e280d492d2284255b25}
      \field{labelalpha}{VDE07}
      \field{sortinit}{V}
      \field{sortinithash}{555737dafdcf1396ebfeae5822e5bde2}
      \field{labelnamesource}{author}
      \field{labeltitlesource}{title}
      \field{langid}{german}
      \field{month}{6}
      \field{title}{Einstiegshilfe - Errichten von Niederspannungsanlagen}
      \field{urlday}{1}
      \field{urlmonth}{3}
      \field{urlyear}{2019}
      \field{year}{2007}
      \field{dateera}{ce}
      \field{urldateera}{ce}
      \field{pages}{136}
      \range{pages}{1}
      \verb{file}
      \verb Einstiegshilfe - Errichten von Niederspannungsanla.pdf:/home/franzi/Zotero/storage/JSUFA8J8/Einstiegshilfe - Errichten von Niederspannungsanla.pdf:application/pdf
      \endverb
    \endentry
  \endsortlist
  \missing{haberzettl_dehnungsmessstreifen_nodate}
\endrefsection
\endinput

