% $ biblatex auxiliary file $
% $ biblatex bbl format version 2.8 $
% Do not modify the above lines!
%
% This is an auxiliary file used by the 'biblatex' package.
% This file may safely be deleted. It will be recreated by
% biber as required.
%
\begingroup
\makeatletter
\@ifundefined{ver@biblatex.sty}
  {\@latex@error
     {Missing 'biblatex' package}
     {The bibliography requires the 'biblatex' package.}
      \aftergroup\endinput}
  {}
\endgroup


\refsection{0}
  \sortlist[entry]{anyt/global/}
    \entry{world_bank_group_access_2019}{online}{}
      \name{author}{1}{}{%
        {{hash=90d7a1a3ed0b6dae5d346da704eef50c}{%
           family={Group},
           familyi={G\bibinitperiod},
           given={World\bibnamedelima Bank},
           giveni={W\bibinitperiod\bibinitdelim B\bibinitperiod}}}%
      }
      \strng{namehash}{90d7a1a3ed0b6dae5d346da704eef50c}
      \strng{fullhash}{90d7a1a3ed0b6dae5d346da704eef50c}
      \strng{authornamehash}{90d7a1a3ed0b6dae5d346da704eef50c}
      \strng{authorfullhash}{90d7a1a3ed0b6dae5d346da704eef50c}
      \field{labelalpha}{Gro19}
      \field{sortinit}{G}
      \field{sortinithash}{618d986594b7198ba52cf8b00d348f3f}
      \field{labelnamesource}{author}
      \field{labeltitlesource}{title}
      \field{day}{29}
      \field{month}{1}
      \field{title}{Access to electricity (\% of population) {|} Data}
      \field{urlday}{1}
      \field{urlmonth}{2}
      \field{urlyear}{2019}
      \field{year}{2019}
      \field{dateera}{ce}
      \field{urldateera}{ce}
      \verb{file}
      \verb Access to electricity (% of population) | Data:/home/franzi/Zotero/storage/P3HKFLDJ/EG.ELC.ACCS.html:text/html
      \endverb
      \verb{url}
      \verb https://data.worldbank.org/indicator/EG.ELC.ACCS.ZS
      \endverb
    \endentry
    \entry{hagmann_grundlagen_2017}{book}{}
      \name{author}{1}{}{%
        {{hash=33a7d9a9998e42a7fcbf533ad49040ab}{%
           family={Hagmann},
           familyi={H\bibinitperiod},
           given={Gert},
           giveni={G\bibinitperiod}}}%
      }
      \list{location}{1}{%
        {Wiebelsheim}%
      }
      \list{publisher}{1}{%
        {{AULA}-Verlag}%
      }
      \strng{namehash}{33a7d9a9998e42a7fcbf533ad49040ab}
      \strng{fullhash}{33a7d9a9998e42a7fcbf533ad49040ab}
      \strng{authornamehash}{33a7d9a9998e42a7fcbf533ad49040ab}
      \strng{authorfullhash}{33a7d9a9998e42a7fcbf533ad49040ab}
      \field{labelalpha}{Hag17}
      \field{sortinit}{H}
      \field{sortinithash}{2f664b453ec75da1fe3804ca92633405}
      \field{labelnamesource}{author}
      \field{labeltitlesource}{shorttitle}
      \field{edition}{17., durchgesehene und korrigierte Auflage}
      \field{isbn}{978-3-89104-804-7}
      \field{note}{{OCLC}: 982653245}
      \field{pagetotal}{398}
      \field{series}{Elektrotechnik}
      \field{shorttitle}{Grundlagen der Elektrotechnik}
      \field{title}{Grundlagen der Elektrotechnik: das bewährte Lehrbuch für Studierende der Elektrotechnik und anderer technischer Studiengänge ab 1. Semester: mit 225 Abbildungen, 4 Tabellen, Aufgaben und Lösungen}
      \field{year}{2017}
      \field{dateera}{ce}
      \verb{file}
      \verb Table of Contents PDF:/home/franzi/Zotero/storage/UJHM5WD4/Hagmann - 2017 - Grundlagen der Elektrotechnik das bewährte Lehrbu.pdf:application/pdf
      \endverb
    \endentry
    \entry{nerreter_grundlagen_2011}{book}{}
      \name{author}{1}{}{%
        {{hash=f371fddacf518e620b525397c05f8476}{%
           family={Nerreter},
           familyi={N\bibinitperiod},
           given={Wolfgang},
           giveni={W\bibinitperiod}}}%
      }
      \list{location}{1}{%
        {München}%
      }
      \list{publisher}{1}{%
        {Fachbuchverl. Leipzig im Carl-Hanser-Verl}%
      }
      \strng{namehash}{f371fddacf518e620b525397c05f8476}
      \strng{fullhash}{f371fddacf518e620b525397c05f8476}
      \strng{authornamehash}{f371fddacf518e620b525397c05f8476}
      \strng{authorfullhash}{f371fddacf518e620b525397c05f8476}
      \field{labelalpha}{Ner11}
      \field{sortinit}{N}
      \field{sortinithash}{1163c28585427c673ad5a010cbf82f52}
      \field{labelnamesource}{author}
      \field{labeltitlesource}{shorttitle}
      \field{edition}{2., aktualisierte Aufl}
      \field{isbn}{978-3-446-42385-5}
      \field{note}{{OCLC}: 846279145}
      \field{pagetotal}{383}
      \field{shorttitle}{Grundlagen der Elektrotechnik}
      \field{title}{Grundlagen der Elektrotechnik: mit 31 Tabellen, 138 Beispielen, sowie 100 Aufgaben mit Lösungen}
      \field{year}{2011}
      \field{dateera}{ce}
    \endentry
    \entry{stiny_aufgabensammlung_2017}{book}{}
      \name{author}{1}{}{%
        {{hash=0c6ddeb720141ec11bd2e02656060d57}{%
           family={Stiny},
           familyi={S\bibinitperiod},
           given={Leonhard},
           giveni={L\bibinitperiod}}}%
      }
      \list{language}{1}{%
        {de}%
      }
      \list{location}{1}{%
        {Wiesbaden}%
      }
      \list{publisher}{1}{%
        {Springer Fachmedien Wiesbaden}%
      }
      \strng{namehash}{0c6ddeb720141ec11bd2e02656060d57}
      \strng{fullhash}{0c6ddeb720141ec11bd2e02656060d57}
      \strng{authornamehash}{0c6ddeb720141ec11bd2e02656060d57}
      \strng{authorfullhash}{0c6ddeb720141ec11bd2e02656060d57}
      \field{labelalpha}{Sti17}
      \field{sortinit}{S}
      \field{sortinithash}{3c1547c63380458f8ca90e40ed14b83e}
      \field{labelnamesource}{author}
      \field{labeltitlesource}{title}
      \field{isbn}{978-3-658-14380-0 978-3-658-14381-7}
      \field{title}{Aufgabensammlung zur {Elektrotechnik} und {Elektronik}}
      \field{urlday}{3}
      \field{urlmonth}{10}
      \field{urlyear}{2018}
      \field{year}{2017}
      \field{urldateera}{ce}
      \verb{doi}
      \verb 10.1007/978-3-658-14381-7
      \endverb
      \verb{file}
      \verb Stiny - 2017 - Aufgabensammlung zur Elektrotechnik und Elektronik.pdf:/home/franzi/Dokumente/Literat/Stiny - 2017 - Aufgabensammlung zur Elektrotechnik und Elektronik.pdf:application/pdf
      \endverb
      \verb{url}
      \verb http://link.springer.com/10.1007/978-3-658-14381-7
      \endverb
    \endentry
  \endsortlist
\endrefsection
\endinput

